{
    "port": 5000,
    "jwtSecret": "Inna mern",
    "mongoUri": "mongodb+srv://inna:1234mern@cluster0.lodza.azure.mongodb.net/app?retryWrites=true&w=majority",
    "baseUrl": "http://localhost:5000"
}